week5-ex
…
# Merge close wildschweinschreck gps  data to origin wildboar
w <- w %>% left_join(w1 %>% dplyr::select(id, closest_schreck, distance_to_closest_schreck), by="id")
w <- w %>% mutate(closest_schreck= 
  ifelse(is.na(closest_schreck), "no_Schreck_witin_400m", closest_schreck))

#add tripdate
w <- w %>% mutate(hour= as.integer(format(DatetimeUTC, format = "%H")),
                tripdate= ifelse(hour < 12, as.Date(DatetimeUTC)-1, as.Date(DatetimeUTC)),
                tripdate2 = as.Date(tripdate, origin="1970-01-01"))

w %>% dplyr::select(DatetimeUTC, tripdate2)

## # A tibble: 327,255 x 2
##    DatetimeUTC         tripdate2 
##    <dttm>              <date>    
##  1 2014-05-28 21:01:14 2014-05-28
##  2 2014-05-28 21:15:18 2014-05-28
##  3 2014-05-28 21:30:13 2014-05-28
##  4 2014-05-28 21:45:11 2014-05-28
##  5 2014-05-28 22:00:33 2014-05-28
##  6 2014-05-28 22:15:16 2014-05-28
##  7 2014-05-28 22:30:14 2014-05-28
##  8 2014-05-28 22:45:09 2014-05-28
##  9 2014-05-28 23:00:12 2014-05-28
## 10 2014-05-28 23:15:08 2014-05-28
## #  with 327,245 more rows
…
